%YAML 1.1
%TAG !u! tag:unity3d.com,2011:
--- !u!1 &7974382452209153905
GameObject:
  m_ObjectHideFlags: 0
  m_CorrespondingSourceObject: {fileID: 0}
  m_PrefabInstance: {fileID: 0}
  m_PrefabAsset: {fileID: 0}
  serializedVersion: 6
  m_Component:
  - component: {fileID: 7974382452209153919}
  - component: {fileID: 7974382452209153918}
  m_Layer: 0
  m_Name: Lanzador
  m_TagString: Untagged
  m_Icon: {fileID: 0}
  m_NavMeshLayer: 0
  m_StaticEditorFlags: 0
  m_IsActive: 1
--- !u!4 &7974382452209153919
Transform:
  m_ObjectHideFlags: 0
  m_CorrespondingSourceObject: {fileID: 0}
  m_PrefabInstance: {fileID: 0}
  m_PrefabAsset: {fileID: 0}
  m_GameObject: {fileID: 7974382452209153905}
  m_LocalRotation: {x: 0, y: 0, z: 0, w: 1}
  m_LocalPosition: {x: -0.2, y: 3.7, z: -50}
  m_LocalScale: {x: 2, y: 2, z: 2}
  m_Children: []
  m_Father: {fileID: 0}
  m_RootOrder: 0
  m_LocalEulerAnglesHint: {x: 0, y: 0, z: 0}
--- !u!114 &7974382452209153918
MonoBehaviour:
  m_ObjectHideFlags: 0
  m_CorrespondingSourceObject: {fileID: 0}
  m_PrefabInstance: {fileID: 0}
  m_PrefabAsset: {fileID: 0}
  m_GameObject: {fileID: 7974382452209153905}
  m_Enabled: 1
  m_EditorHideFlags: 0
  m_Script: {fileID: 11500000, guid: 117a3283560d64b4daf77cd48c6021b0, type: 3}
  m_Name: 
  m_EditorClassIdentifier: 
  lanzador: {fileID: 7974382452209153919}
  prefabPelota: {fileID: 2610799530707421524, guid: 926ce0d47b8030f4a85aff326d752f1f,
    type: 3}
  speed: 5000
  audioClip: {fileID: 8300000, guid: 844e78c3927ccce4a9c956ba91456156, type: 3}
